<svg xmlns="http://www.w3.org/2000/svg" width="24.749" height="24.749" viewBox="0 0 24.749 24.749">
  <g id="Group_16" data-name="Group 16" transform="translate(-819.126 -200.626)">
    <line id="Line_1" data-name="Line 1" y2="31" transform="translate(820.54 202.04) rotate(-45)" fill="none" stroke="#fff" stroke-linecap="round" stroke-width="2"/>
    <line id="Line_2" data-name="Line 2" y2="31" transform="translate(842.46 202.04) rotate(45)" fill="none" stroke="#fff" stroke-linecap="round" stroke-width="2"/>
  </g>
</svg>
