<svg xmlns="http://www.w3.org/2000/svg" width="512" height="384" viewBox="0 0 512 384">
  <path id="envelope-solid" d="M453.3,329.8a6.02,6.02,0,0,1,9.7,4.7V539a48.012,48.012,0,0,1-48,48H-1a48.012,48.012,0,0,1-48-48V334.6a5.981,5.981,0,0,1,9.7-4.7c22.4,17.4,52.1,39.5,154.1,113.6,21.1,15.4,56.7,47.8,92.2,47.6,35.7.3,72-32.8,92.3-47.6C401.3,369.4,430.9,347.2,453.3,329.8ZM207,459c23.2.4,56.6-29.2,73.4-41.4,132.7-96.3,142.8-104.7,173.4-128.7A23.93,23.93,0,0,0,463,270V251a48.012,48.012,0,0,0-48-48H-1a48.012,48.012,0,0,0-48,48v19a24.076,24.076,0,0,0,9.2,18.9C-9.2,312.8.9,321.3,133.6,417.6c16.8,12.2,50.2,41.8,73.4,41.4Z" transform="translate(49 -203)" fill="#dedfdf"/>
</svg>
